<svg viewBox="0 0 41 40" fill="none" xmlns="http://www.w3.org/2000/svg">
    <path fill-rule="evenodd" clip-rule="evenodd" d="M40.044 36.531a.991.991 0 0 1 0 1.41l-.71.704c-.391.389-1.027.389-1.418 0l-17.647-17.52L2.522 38.742c-.392.39-1.027.39-1.419 0l-.71-.704a.991.991 0 0 1 0-1.41L18.14 19.01 1.415 2.406a.991.991 0 0 1 0-1.41l.71-.704a1.009 1.009 0 0 1 1.42 0l16.724 16.605L36.894.39a1.009 1.009 0 0 1 1.419 0l.71.704a.991.991 0 0 1 0 1.41L22.398 19.01l17.646 17.521z" fill="#4A4A4A"/>
</svg>
