<svg width="23" height="24" viewBox="0 0 23 24" fill="none" xmlns="http://www.w3.org/2000/svg">
<mask id="path-1-inside-1" fill="white">
<path fill-rule="evenodd" clip-rule="evenodd" d="M9.9726 5.3318C9.99062 5.22388 10 5.11304 10 5C10 3.89543 9.10457 3 8 3C6.89543 3 6 3.89543 6 5C6 5.11304 6.00938 5.22388 6.0274 5.3318C3.68271 6.14769 2 8.37734 2 11V18.05C0.85888 18.2816 0 19.2905 0 20.5V21H16V20.5C16 19.2905 15.1411 18.2816 14 18.05V11C14 8.37734 12.3173 6.14769 9.9726 5.3318Z"/>
</mask>
<path d="M9.9726 5.3318L8.98626 5.16711L8.84735 5.99906L9.64396 6.27626L9.9726 5.3318ZM6.0274 5.3318L6.35604 6.27626L7.15265 5.99906L7.01374 5.16711L6.0274 5.3318ZM2 18.05L2.19893 19.03L3 18.8674V18.05H2ZM0 21H-1V22H0V21ZM16 21V22H17V21H16ZM14 18.05H13V18.8674L13.8011 19.03L14 18.05ZM10.9589 5.4965C10.986 5.33437 11 5.16844 11 5H9C9 5.05764 8.99523 5.1134 8.98626 5.16711L10.9589 5.4965ZM11 5C11 3.34315 9.65685 2 8 2V4C8.55229 4 9 4.44772 9 5H11ZM8 2C6.34315 2 5 3.34315 5 5H7C7 4.44772 7.44772 4 8 4V2ZM5 5C5 5.16844 5.01398 5.33437 5.04105 5.4965L7.01374 5.16711C7.00477 5.1134 7 5.05764 7 5H5ZM5.69875 4.38735C2.96458 5.33877 1 7.93867 1 11H3C3 8.816 4.40085 6.95661 6.35604 6.27626L5.69875 4.38735ZM1 11V18.05H3V11H1ZM1.80107 17.07C0.20308 17.3944 -1 18.8056 -1 20.5H1C1 19.7755 1.51468 19.1689 2.19893 19.03L1.80107 17.07ZM-1 20.5V21H1V20.5H-1ZM0 22H16V20H0V22ZM17 21V20.5H15V21H17ZM17 20.5C17 18.8056 15.7969 17.3944 14.1989 17.07L13.8011 19.03C14.4853 19.1689 15 19.7755 15 20.5H17ZM15 18.05V11H13V18.05H15ZM15 11C15 7.93867 13.0354 5.33877 10.3012 4.38735L9.64396 6.27626C11.5992 6.95661 13 8.816 13 11H15Z" fill="#979797" mask="url(#path-1-inside-1)"/>
<path fill-rule="evenodd" clip-rule="evenodd" d="M8.5 24C9.88071 24 11 21.5 11 21.5H6C6 21.5 7.11929 24 8.5 24Z" fill="#979797"/>
</svg>
